…
A lot of missing values in the entire dataset.

``` r
frequencies = full_data %>%  select(Survived,Pclass, Sex, Embarked, SibSp, Parch) %>% 
  gather(.,"var","value") %>% count(var, value) 
frequencies
```

    ## # A tibble: 27 x 3
    ##    var      value     n
    ##    <chr>    <chr> <int>
    ##  1 Embarked C       270
    ##  2 Embarked Q       123
    ##  3 Embarked S       914
    ##  4 Embarked <NA>      2
    ##  5 Parch    0      1002
    ##  6 Parch    1       170
    ##  7 Parch    2       113
    ##  8 Parch    3         8
    ##  9 Parch    4         6
    ## 10 Parch    5         6
    ## # ... with 17 more rows
…
